rtl/bench.vcd
$date
	Sat May 14 06:37:02 2016
$end
$version
	Icarus Verilog
$end
$timescale
	10ps
$end
$scope module tb_top $end
$scope module dut $end
$var wire 1 ! arst_i $end
$var wire 3 " haddr [2:0] $end
$var wire 3 # hburst [2:0] $end
$var wire 1 $ hclk $end
$var wire 8 % hrdata [7:0] $end
$var wire 1 & hready $end
$var wire 1 ' hresetn $end
$var wire 2 ( hresp [1:0] $end
$var wire 3 ) hsize [2:0] $end
$var wire 2 * htrans [1:0] $end
$var wire 8 + hwdata [7:0] $end
$var wire 1 , hwrite $end
$var wire 1 - scl $end
$var wire 1 . scl0_o $end
$var wire 1 / scl0_oen $end
$var wire 1 0 scl1_o $end
$var wire 1 1 scl1_oen $end
$var wire 1 2 sda $end
$var wire 1 3 sda0_o $end
$var wire 1 4 sda0_oen $end
$var wire 1 5 sda1_o $end
$var wire 1 6 sda1_oen $end
$scope module i2c_top $end
$var wire 1 7 ack $end
$var wire 1 ! arst_i $end
$var wire 1 8 core_en $end
$var wire 1 9 done $end
$var wire 3 : haddr [2:0] $end
$var wire 3 ; hburst [2:0] $end
$var wire 1 $ hclk $end
$var wire 1 ' hresetn $end
$var wire 3 < hsize [2:0] $end
$var wire 2 = htrans [1:0] $end
$var wire 8 > hwdata [7:0] $end
$var wire 1 , hwrite $end
$var wire 1 ? i2c_al $end
$var wire 1 @ i2c_busy $end
$var wire 1 A iack $end
$var wire 1 B ien $end
$var wire 1 C irxack $end
$var wire 1 D rd $end
$var wire 1 E rst_i $end
$var wire 8 F rxr [7:0] $end
$var wire 1 - scl_pad_i $end
$var wire 1 . scl_pad_o $end
$var wire 1 / scl_padoen_o $end
$var wire 1 2 sda_pad_i $end
$var wire 1 3 sda_pad_o $end
$var wire 1 4 sda_padoen_o $end
$var wire 1 G sta $end
$var wire 1 H sto $end
$var wire 1 I wr $end
$var reg 1 J al $end
$var reg 8 K cr [7:0] $end
$var reg 8 L ctr [7:0] $end
$var reg 8 M hrdata [7:0] $end
$var reg 1 N hready $end
$var reg 2 O hresp [1:0] $end
$var reg 1 P irq_flag $end
$var reg 16 Q prer [15:0] $end
$var reg 1 R rxack $end
$var reg 8 S sr [7:0] $end
$var reg 1 T tip $end
$var reg 8 U txr [7:0] $end
$scope module byte_controller $end
$var wire 1 7 ack_in $end
$var wire 1 $ clk $end
$var wire 16 V clk_cnt [15:0] $end
$var wire 1 W cnt_done $end
$var wire 1 X core_ack $end
$var wire 1 Y core_rxd $end
$var wire 8 Z din [7:0] $end
$var wire 8 [ dout [7:0] $end
$var wire 1 8 ena $end
$var wire 1 \ go $end
$var wire 1 ? i2c_al $end
$var wire 1 @ i2c_busy $end
$var wire 1 E nReset $end
$var wire 1 D read $end
$var wire 1 ' rst $end
$var wire 1 - scl_i $end
$var wire 1 . scl_o $end
$var wire 1 / scl_oen $end
$var wire 1 2 sda_i $end
$var wire 1 3 sda_o $end
$var wire 1 4 sda_oen $end
$var wire 1 G start $end
$var wire 1 H stop $end
$var wire 1 I write $end
$var reg 1 ] ack_out $end
$var reg 5 ^ c_state [4:0] $end
$var reg 1 _ cmd_ack $end
$var reg 4 ` core_cmd [3:0] $end
$var reg 1 a core_txd $end
$var reg 3 b dcnt [2:0] $end
$var reg 1 c ld $end
$var reg 1 d shift $end
$var reg 8 e sr [7:0] $end
$scope module bit_controller $end
$var wire 1 $ clk $end
$var wire 16 f clk_cnt [15:0] $end
$var wire 4 g cmd [3:0] $end
$var wire 1 h din $end
$var wire 1 8 ena $end
$var wire 1 E nReset $end
$var wire 1 ' rst $end
$var wire 1 - scl_i $end
$var wire 1 . scl_o $end
$var wire 1 i scl_sync $end
$var wire 1 2 sda_i $end
$var wire 1 3 sda_o $end
$var reg 1 j al $end
$var reg 1 k busy $end
$var reg 2 l cSCL [1:0] $end
$var reg 2 m cSDA [1:0] $end
$var reg 18 n c_state [17:0] $end
$var reg 1 o clk_en $end
$var reg 1 p cmd_ack $end
$var reg 1 q cmd_stop $end
$var reg 16 r cnt [15:0] $end
$var reg 1 s dSCL $end
$var reg 1 t dSDA $end
$var reg 1 u dout $end
$var reg 1 v dscl_oen $end
$var reg 3 w fSCL [2:0] $end
$var reg 3 x fSDA [2:0] $end
$var reg 14 y filter_cnt [13:0] $end
$var reg 1 z sSCL $end
$var reg 1 { sSDA $end
$var reg 1 | scl_oen $end
$var reg 1 } sda_chk $end
$var reg 1 ~ sda_oen $end
$var reg 1 !" slave_wait $end
$var reg 1 "" sta_condition $end
$var reg 1 #" sto_condition $end
$upscope $end
$upscope $end
$upscope $end
$scope module i2c_slave $end
$var wire 1 $" acc_done $end
$var wire 1 %" debug $end
$var wire 1 &" i2c_reset $end
$var wire 1 '" my_adr $end
$var wire 1 - scl $end
$var wire 1 2 sda $end
$var wire 1 (" sda_dly $end
$var wire 1 )" tst_sta $end
$var wire 1 *" tst_sto $end
$var reg 3 +" bit_cnt [2:0] $end
$var reg 1 ," d_sta $end
$var reg 1 -" ld $end
$var reg 8 ." mem_adr [7:0] $end
$var reg 8 /" mem_do [7:0] $end
$var reg 1 0" rw $end
$var reg 1 1" sda_o $end
$var reg 8 2" sr [7:0] $end
$var reg 1 3" sta $end
$var reg 3 4" state [2:0] $end
$var reg 1 5" sto $end
$upscope $end
$scope module m0_scl $end
$var wire 1 6" in $end
$var wire 1 - out $end
$upscope $end
$scope module m1_scl $end
$var wire 1 7" in $end
$var wire 1 - out $end
$upscope $end
$scope module m0_sda $end
$var wire 1 8" in $end
$var wire 1 2 out $end
$upscope $end
$scope module m1_sda $end
$var wire 1 9" in $end
$var wire 1 2 out $end
$upscope $end
$upscope $end
$upscope $end
$enddefinitions $end
#0
$dumpvars
z9"
x8"
z7"
x6"
x5"
b0 4"
x3"
bx 2"
11"
x0"
bx /"
bx ."
x-"
x,"
bx +"
x*"
x)"
x("
x'"
x&"
1%"
x$"
x#"
x""
x!"
x~
x}
x|
x{
xz
bx y
bx x
bx w
xv
xu
xt
xs
bx r
xq
xp
xo
bx n
bx m
bx l
xk
xj
xi
xh
bx g
bx f
bx e
xd
xc
bx b
xa
bx `
x_
bx ^
x]
x\
bx [
bx Z
xY
xX
xW
bx V
bx U
xT
bx S
xR
bx Q
xP
bx O
xN
bx M
bx L
bx K
xJ
xI
xH
xG
bx F
1E
xD
xC
xB
xA
x@
x?
bx >
bx =
bx <
bx ;
bx :
x9
x8
x7
z6
z5
x4
03
x2
z1
z0
x/
0.
x-
x,
bx +
bx *
bx )
bx (
1'
x&
bx %
0$
bx #
bx "
z!
$end
#100
0-"
03"
0)"
#35000
b0 y
b111 x
b111 w
b0 O
b0 (
1N
1&
1$
#35100
0i
0\
12
z8"
1-
z6"
1W
0G
0H
0D
0I
07
0A
1o
b0 m
b0 l
1t
1s
1{
1z
0#"
0""
0k
0@
0q
0j
0?
0}
1~
14
1|
1/
0p
0X
b0 n
b0 e
b0 F
b0 [
b0 b
0]
0C
b0 ^
0_
09
0c
0d
0a
0h
b0 `
b0 g
b0 K
0P
0T
0R
0J
#35200
1&"
15"
1*"
bx1 2"
0,"
1("
#35300
1-"
#40000
0$
#45000
0!"
1$
#45100
1v
